<?xml version="1.0" encoding="utf-8"?>
<!-- Generator: Adobe Illustrator 16.0.0, SVG Export Plug-In . SVG Version: 6.00 Build 0)  -->
<!DOCTYPE svg PUBLIC "-//W3C//DTD SVG 1.1//EN" "http://www.w3.org/Graphics/SVG/1.1/DTD/svg11.dtd">
<svg version="1.1" id="Layer_1" xmlns="http://www.w3.org/2000/svg" xmlns:xlink="http://www.w3.org/1999/xlink" x="0px" y="0px"
	 width="198px" height="43px" viewBox="0 0 198 43" enable-background="new 0 0 198 43" xml:space="preserve">
<path fill-rule="evenodd" clip-rule="evenodd" fill="#FFFFFF" d="M135.178,0.208c-0.001-0.036-0.002-0.071-0.003-0.106
	c0.85,0,1.699,0,2.549,0c-0.009,0.042-0.018,0.085-0.026,0.127C136.857,0.223,136.018,0.215,135.178,0.208z"/>
<path fill-rule="evenodd" clip-rule="evenodd" fill="#FFFFFF" d="M121.032,0.227c-0.01-0.042-0.019-0.083-0.027-0.125
	c0.85,0,1.699,0,2.549,0c0.003,0.033,0.004,0.066,0.002,0.1C122.715,0.21,121.873,0.219,121.032,0.227z"/>
<path fill-rule="evenodd" clip-rule="evenodd" fill="#FFFFFF" d="M80.432,0.102c-0.001,0.036-0.003,0.072-0.005,0.108
	c-0.839,0.005-1.678,0.011-2.517,0.017c-0.009-0.042-0.018-0.083-0.026-0.125C78.733,0.102,79.583,0.102,80.432,0.102z"/>
<path fill-rule="evenodd" clip-rule="evenodd" fill="#FFFFFF" d="M156.278,43.021c-0.008,0.033-0.008,0.066-0.001,0.1
	c-0.714,0-1.428,0-2.141,0c0-0.034,0-0.068,0.001-0.103C154.852,43.02,155.564,43.021,156.278,43.021z"/>
<path fill-rule="evenodd" clip-rule="evenodd" fill="#FFFFFF" d="M0.174,36.858C7.243,25.214,14.275,13.629,21.347,1.981
	c6.983,11.502,13.93,22.947,20.878,34.39c0.033-0.008,0.067-0.017,0.101-0.025c0-8.797,0-17.595,0-26.392
	c0.039-0.02,0.078-0.04,0.117-0.06c9,8.961,18,17.922,27.08,26.964C46.348,36.858,23.306,36.858,0.174,36.858z"/>
<path fill-rule="evenodd" clip-rule="evenodd" fill="#FFFFFF" d="M82.896,25.694c2.069-2.445,6.287-2.099,7.903,0.599
	c0.124-0.147,0.242-0.289,0.362-0.43c1.966-2.296,5.669-2.462,7.659-0.331c0.967,1.036,1.322,2.317,1.333,3.696
	c0.021,2.378-0.002,4.757,0.015,7.136c0.003,0.388-0.119,0.488-0.495,0.481c-1.154-0.023-2.311-0.029-3.465,0.002
	c-0.444,0.012-0.532-0.15-0.528-0.557c0.018-2.072,0.016-4.146,0.006-6.218c-0.008-1.662-1.297-2.566-2.879-2.039
	c-0.768,0.256-1.238,0.868-1.252,1.789c-0.031,1.987-0.018,3.976-0.023,5.963c0,0.204-0.015,0.409,0.003,0.611
	c0.03,0.322-0.075,0.452-0.423,0.446c-1.206-0.019-2.413-0.02-3.619,0.001c-0.353,0.007-0.425-0.123-0.423-0.442
	c0.011-1.954,0.006-3.908,0.005-5.861c0-0.204-0.003-0.408-0.017-0.611c-0.113-1.648-1.546-2.506-3.058-1.825
	c-0.82,0.369-1.097,1.072-1.101,1.906c-0.01,2.09-0.016,4.18,0.007,6.27c0.005,0.435-0.083,0.585-0.552,0.569
	c-1.154-0.039-2.311-0.023-3.465-0.007c-0.341,0.005-0.474-0.079-0.473-0.45c0.013-3.941,0.012-7.883,0-11.825
	c-0.001-0.353,0.128-0.422,0.446-0.418c1.206,0.015,2.413,0.018,3.619-0.002c0.343-0.006,0.446,0.104,0.421,0.434
	C82.876,24.917,82.896,25.257,82.896,25.694z"/>
<path fill-rule="evenodd" clip-rule="evenodd" fill="#FFFFFF" d="M156.278,43.021c-0.714-0.001-1.427-0.002-2.141-0.003
	c-1.287-0.138-2.497-0.491-3.548-1.279c-1.178-0.883-1.811-2.083-2.048-3.519c-0.046-0.278,0.059-0.318,0.287-0.317
	c1.257,0.005,2.514,0.004,3.771,0c0.181,0,0.294,0.035,0.395,0.226c0.47,0.885,1.294,1.201,2.538,1.013
	c0.847-0.128,1.427-0.699,1.604-1.62c0.135-0.7,0.071-1.408,0.063-2.113c-0.07,0-0.113-0.014-0.129,0.002
	c-2.703,2.621-6.702,1.888-8.3-1.525c-1.274-2.723-0.847-6.257,1.004-8.279c1.622-1.773,4.548-2.15,6.42-0.83
	c0.35,0.246,0.631,0.562,0.951,0.925c0.125-0.405,0.06-0.772,0.059-1.13c-0.001-0.291,0.06-0.427,0.393-0.422
	c1.24,0.017,2.48,0.014,3.721,0.001c0.293-0.003,0.376,0.104,0.375,0.386c-0.007,4.162,0.025,8.324-0.021,12.486
	c-0.02,1.79-0.592,3.411-1.999,4.631C158.7,42.495,157.535,42.877,156.278,43.021z M157.214,30.484
	c0.001-1.318-0.698-2.327-1.766-2.547c-1.307-0.27-2.415,0.446-2.72,1.757c-0.366,1.573,0.343,3.024,1.632,3.341
	c0.316,0.077,0.633,0.102,0.957,0.041C156.496,32.855,157.212,31.88,157.214,30.484z"/>
<path fill-rule="evenodd" clip-rule="evenodd" fill="#FFFFFF" d="M52.142,1.918c0.262,0,0.378,0,0.494,0
	c5.823,0,11.646,0.004,17.469-0.008c0.413-0.001,0.551,0.099,0.55,0.534c-0.014,5.874-0.009,11.748-0.01,17.622
	c0,0.117-0.012,0.234-0.028,0.533C64.431,14.344,58.339,8.184,52.142,1.918z"/>
<path fill-rule="evenodd" clip-rule="evenodd" fill="#FFFFFF" d="M141.818,25.83c0-0.536,0.009-0.924-0.004-1.31
	c-0.008-0.244,0.042-0.373,0.331-0.37c1.273,0.012,2.548,0.014,3.822-0.001c0.345-0.004,0.326,0.193,0.326,0.426
	c-0.003,1.325-0.002,2.649-0.002,3.975c0,2.582-0.008,5.164,0.009,7.746c0.003,0.406-0.08,0.563-0.523,0.552
	c-1.154-0.031-2.311-0.03-3.465-0.001c-0.418,0.011-0.537-0.13-0.501-0.521c0.03-0.319,0.007-0.645,0.007-0.994
	c-0.065,0.021-0.122,0.02-0.142,0.047c-1.474,1.996-4.77,2.094-6.703,0.552c-1.315-1.05-1.959-2.456-2.184-4.065
	c-0.26-1.854-0.099-3.664,0.886-5.319c1.227-2.06,3.516-2.982,5.831-2.371C140.429,24.419,141.165,24.931,141.818,25.83z
	 M141.818,30.503c0.005-1.183-0.54-2.109-1.45-2.465c-1.501-0.586-2.897,0.363-3.113,2.116c-0.232,1.884,1.169,3.296,2.856,2.881
	C141.15,32.779,141.813,31.797,141.818,30.503z"/>
<path fill-rule="evenodd" clip-rule="evenodd" fill="#FFFFFF" d="M110.943,35.267c-2.077,2.468-5.512,2.01-7.205,0.358
	c-1.057-1.03-1.613-2.296-1.809-3.729c-0.241-1.766-0.12-3.487,0.734-5.103c1.33-2.518,4.413-3.545,6.845-2.278
	c0.536,0.279,0.957,0.688,1.435,1.278c0-0.512,0.016-0.889-0.005-1.265c-0.016-0.291,0.092-0.382,0.38-0.379
	c1.239,0.012,2.48,0.012,3.72-0.001c0.28-0.003,0.384,0.069,0.383,0.367c-0.009,3.992-0.008,7.984-0.001,11.978
	c0,0.266-0.087,0.35-0.352,0.348c-1.257-0.012-2.514-0.01-3.771-0.002c-0.261,0.002-0.368-0.087-0.357-0.354
	C110.955,36.113,110.943,35.74,110.943,35.267z M110.943,30.515c0.011-1.434-0.787-2.483-1.974-2.602
	c-1.617-0.159-2.753,1.06-2.596,2.788c0.112,1.24,0.729,2.085,1.702,2.332C109.649,33.431,110.932,32.306,110.943,30.515z"/>
<path fill-rule="evenodd" clip-rule="evenodd" fill="#FFFFFF" d="M122.507,25.723c0.741-0.854,1.657-1.387,2.763-1.601
	c2.81-0.543,5.22,1.174,5.64,4.004c0.144,0.966,0.08,1.932,0.088,2.896c0.015,1.766-0.006,3.532,0.012,5.298
	c0.003,0.378-0.065,0.539-0.496,0.527c-1.153-0.031-2.309-0.025-3.463-0.003c-0.395,0.009-0.522-0.099-0.519-0.509
	c0.021-2.021,0.012-4.041,0.006-6.062c0-0.304-0.007-0.614-0.068-0.91c-0.232-1.103-0.985-1.673-2.117-1.636
	c-1.052,0.035-1.791,0.709-1.923,1.805c-0.113,0.945-0.035,1.898-0.043,2.848c-0.012,1.342-0.011,2.683,0.003,4.024
	c0.003,0.325-0.088,0.444-0.431,0.438c-1.205-0.019-2.411-0.017-3.616-0.001c-0.332,0.005-0.438-0.103-0.437-0.436
	c0.009-3.939,0.01-7.878,0-11.817c-0.001-0.326,0.082-0.446,0.425-0.441c1.206,0.018,2.411,0.021,3.616-0.002
	c0.38-0.008,0.464,0.138,0.441,0.474c-0.022,0.349-0.005,0.7-0.005,1.052C122.424,25.688,122.466,25.705,122.507,25.723z"/>
<path fill-rule="evenodd" clip-rule="evenodd" fill="#FFFFFF" d="M172.065,31.398c-1.257,0-2.515,0.011-3.771-0.007
	c-0.339-0.005-0.446,0.078-0.37,0.425c0.17,0.769,0.52,1.361,1.348,1.55c0.795,0.182,1.445-0.033,1.9-0.725
	c0.124-0.188,0.274-0.217,0.473-0.216c1.342,0.005,2.684,0.014,4.025-0.005c0.357-0.005,0.392,0.104,0.297,0.409
	c-0.557,1.774-1.727,2.985-3.432,3.66c-1.927,0.763-3.859,0.691-5.739-0.174c-1.301-0.599-2.249-1.579-2.785-2.913
	c-0.746-1.858-0.795-3.76-0.078-5.624c1.088-2.829,3.695-3.918,6.421-3.771c1.974,0.106,3.671,0.82,4.852,2.489
	c0.98,1.387,1.218,2.955,1.093,4.61c-0.023,0.313-0.2,0.292-0.41,0.292C174.613,31.397,173.34,31.398,172.065,31.398z
	 M169.795,29.236c0.509,0,1.019-0.023,1.525,0.007c0.423,0.024,0.497-0.136,0.386-0.507c-0.236-0.787-0.975-1.245-1.963-1.195
	c-0.883,0.045-1.611,0.633-1.78,1.407c-0.056,0.257,0.048,0.292,0.256,0.289C168.744,29.231,169.27,29.235,169.795,29.236z"/>
<path fill-rule="evenodd" clip-rule="evenodd" fill="#FFFFFF" d="M115.149,5.976c0-0.491,0.014-0.875-0.004-1.258
	c-0.013-0.275,0.063-0.401,0.365-0.393c0.628,0.018,1.257,0.018,1.885,0c0.307-0.009,0.358,0.128,0.358,0.397
	c-0.007,3.82-0.007,7.64,0,11.46c0,0.271-0.053,0.402-0.36,0.393c-0.628-0.02-1.257-0.018-1.885,0
	c-0.305,0.009-0.376-0.122-0.363-0.395c0.017-0.386,0.004-0.774,0.004-1.133c-0.123-0.065-0.178-0.023-0.222,0.028
	c-2.214,2.622-7.854,2.599-9.436-2.426c-0.782-2.484-0.467-4.87,1.39-6.834c2.146-2.27,5.841-2.246,8.039-0.026
	C114.955,5.824,114.997,5.852,115.149,5.976z M115.134,10.244c-0.008-0.135-0.011-0.271-0.022-0.406
	c-0.137-1.558-1.192-2.896-2.612-3.313c-1.445-0.425-3.012,0.083-3.917,1.271c-1.142,1.498-1.067,4.022,0.162,5.453
	c1.273,1.482,3.395,1.733,4.895,0.553C114.785,12.898,115.175,11.656,115.134,10.244z"/>
<path fill-rule="evenodd" clip-rule="evenodd" fill="#FFFFFF" d="M171.989,5.933c0.103-0.444,0.055-0.849,0.051-1.248
	c-0.002-0.264,0.083-0.364,0.351-0.358c0.628,0.012,1.257,0.015,1.885-0.001c0.302-0.007,0.366,0.124,0.365,0.397
	c-0.006,3.822-0.007,7.644,0.001,11.466c0.001,0.285-0.086,0.393-0.376,0.386c-0.611-0.016-1.224-0.021-1.835,0.001
	c-0.331,0.013-0.404-0.128-0.39-0.422c0.02-0.383,0.005-0.768,0.005-1.193c-0.109,0.049-0.161,0.057-0.19,0.087
	c-1.639,1.67-3.615,2.126-5.801,1.44c-2.2-0.69-3.428-2.344-3.854-4.544c-0.473-2.438-0.05-4.695,1.888-6.431
	c2.178-1.953,5.585-1.825,7.682,0.226C171.828,5.796,171.892,5.847,171.989,5.933z M172.063,10.403
	c-0.032-0.267-0.054-0.624-0.121-0.971c-0.313-1.617-1.582-2.848-3.1-3.023c-1.658-0.191-3.16,0.646-3.796,2.135
	c-0.465,1.088-0.513,2.212-0.152,3.333c0.701,2.178,2.895,3.245,4.896,2.352C171.385,13.519,171.981,12.153,172.063,10.403z"/>
<path fill-rule="evenodd" clip-rule="evenodd" fill="#FFFFFF" d="M98.774,11.423c-1.393,0-2.785,0.016-4.177-0.009
	c-0.445-0.008-0.508,0.13-0.405,0.527c0.357,1.375,1.183,2.298,2.59,2.57c1.441,0.279,2.713-0.023,3.529-1.385
	c0.132-0.219,0.299-0.238,0.511-0.237c0.645,0.005,1.291,0.021,1.936-0.005c0.394-0.016,0.472,0.087,0.31,0.451
	c-1.02,2.282-2.835,3.357-5.269,3.432c-3.702,0.114-6.327-2.476-6.344-6.187c-0.009-1.955,0.51-3.688,2.014-5.027
	c2.714-2.417,8.967-2.048,9.959,3.32c0.123,0.667,0.151,1.343,0.091,2.027c-0.035,0.395-0.139,0.544-0.568,0.535
	C101.56,11.404,100.167,11.423,98.774,11.423z M97.479,9.362c0.933,0,1.866,0,2.799,0c0.627,0,0.643-0.02,0.51-0.619
	c-0.338-1.525-1.751-2.516-3.479-2.439c-1.554,0.069-2.927,1.284-3.119,2.732c-0.042,0.32,0.106,0.328,0.338,0.327
	C95.511,9.359,96.495,9.362,97.479,9.362z"/>
<path fill-rule="evenodd" clip-rule="evenodd" fill="#FFFFFF" d="M192.961,11.423c-1.426,0-2.854,0.011-4.279-0.007
	c-0.368-0.004-0.424,0.122-0.359,0.448c0.265,1.343,1.259,2.375,2.58,2.654c1.517,0.32,2.734-0.143,3.543-1.374
	c0.134-0.203,0.276-0.26,0.498-0.256c0.646,0.01,1.292,0.023,1.937-0.003c0.418-0.017,0.504,0.083,0.324,0.479
	c-1.021,2.258-2.828,3.327-5.239,3.402c-4.169,0.13-6.9-3.114-6.285-7.441c0.337-2.367,1.544-4.12,3.878-4.836
	c2.385-0.732,4.666-0.471,6.517,1.382c1.44,1.441,1.755,3.275,1.574,5.235c-0.029,0.315-0.218,0.321-0.458,0.321
	C195.781,11.42,194.371,11.423,192.961,11.423z M191.609,9.362c0.865,0,1.731,0,2.597,0c0.909,0,0.931-0.03,0.655-0.897
	c-0.025-0.081-0.055-0.16-0.087-0.239c-0.519-1.277-1.982-2.073-3.509-1.908c-1.491,0.161-2.682,1.272-2.932,2.708
	c-0.055,0.31,0.075,0.34,0.321,0.338C189.64,9.358,190.624,9.362,191.609,9.362z"/>
<path fill-rule="evenodd" clip-rule="evenodd" fill="#FFFFFF" d="M135.178,0.208c0.84,0.007,1.68,0.014,2.52,0.021
	c0,1.766,0,3.532,0,5.293c0.231,0.063,0.287-0.124,0.396-0.209c1.659-1.305,3.509-1.516,5.425-0.781
	c1.805,0.692,2.639,2.18,2.786,4.042c0.18,2.271,0.041,4.549,0.069,6.825c0.015,1.171,0.003,1.18-1.155,1.167
	c-0.454-0.005-1.036,0.197-1.326-0.089c-0.291-0.286-0.089-0.871-0.092-1.323c-0.011-1.869,0.005-3.738-0.008-5.606
	c-0.011-1.676-0.823-2.779-2.249-3.096c-2.083-0.462-3.748,0.774-3.803,2.907c-0.057,2.224-0.033,4.45-0.021,6.675
	c0.003,0.411-0.09,0.578-0.528,0.545c-0.507-0.038-1.021-0.035-1.527,0c-0.418,0.028-0.546-0.096-0.544-0.53
	c0.018-3.805,0.01-7.61,0.01-11.416c0-1.308-0.002-2.616,0.002-3.924C135.133,0.542,135.091,0.368,135.178,0.208z"/>
<path fill-rule="evenodd" clip-rule="evenodd" fill="#FFFFFF" d="M77.91,0.227c0.839-0.006,1.678-0.012,2.517-0.017
	c0,1.78,0,3.56,0,5.319c0.203,0.098,0.253-0.049,0.333-0.118c1.666-1.424,3.562-1.616,5.53-0.868
	c1.878,0.714,2.712,2.297,2.789,4.199c0.101,2.492,0.028,4.991,0.042,7.487c0.001,0.272-0.092,0.352-0.353,0.345
	c-0.594-0.015-1.189-0.02-1.783,0.002c-0.332,0.012-0.43-0.092-0.428-0.431c0.016-2.14,0.009-4.279,0.006-6.419
	c0-0.237-0.005-0.477-0.043-0.71c-0.349-2.142-2.211-3.199-4.25-2.419c-1.174,0.449-1.812,1.553-1.818,3.187
	c-0.008,2.088-0.014,4.177,0.008,6.266c0.004,0.423-0.108,0.561-0.535,0.529c-0.523-0.039-1.053-0.029-1.578-0.002
	c-0.357,0.019-0.457-0.099-0.455-0.456c0.014-2.836,0.006-5.672,0.008-8.508C77.902,5.151,77.907,2.689,77.91,0.227z"/>
<path fill-rule="evenodd" clip-rule="evenodd" fill="#FFFFFF" d="M182.561,26.129c0.57-0.496,1.057-1.011,1.671-1.383
	c0.635-0.384,1.311-0.627,2.056-0.688c0.299-0.024,0.385,0.08,0.383,0.366c-0.01,1.324-0.012,2.649,0.001,3.974
	c0.003,0.289-0.09,0.388-0.377,0.377c-0.543-0.02-1.085,0-1.627,0.055c-1.293,0.129-2.018,0.787-2.066,2.074
	c-0.063,1.645-0.033,3.293-0.039,4.939c-0.004,0.993-0.001,0.993-0.986,0.993c-1.019,0-2.038-0.011-3.057,0.007
	c-0.327,0.005-0.442-0.09-0.441-0.431c0.01-3.956,0.01-7.913,0-11.869c-0.001-0.326,0.123-0.397,0.419-0.395
	c1.223,0.013,2.445,0.015,3.668-0.001c0.316-0.004,0.414,0.104,0.402,0.411C182.546,25.082,182.561,25.605,182.561,26.129z"/>
<path fill-rule="evenodd" clip-rule="evenodd" fill="#FFFFFF" d="M158.971,8.242c-0.067,0-0.137-0.007-0.203,0.001
	c-0.69,0.08-1.152-0.061-1.584-0.765c-0.926-1.51-3.471-1.577-4.75-0.244c-1.48,1.543-1.403,5.009,0.088,6.534
	c1.077,1.101,4.032,1.341,4.962-0.77c0.106-0.243,0.249-0.322,0.503-0.317c0.662,0.014,1.325,0.023,1.986-0.002
	c0.399-0.015,0.412,0.13,0.291,0.446c-0.646,1.695-1.802,2.86-3.554,3.376c-4.496,1.323-8.329-1.834-7.972-6.559
	c0.172-2.283,1.047-4.198,3.219-5.173c2.357-1.058,4.696-0.934,6.809,0.708c0.785,0.61,1.229,1.478,1.541,2.413
	c0.092,0.274,0.021,0.368-0.266,0.355C159.685,8.229,159.328,8.241,158.971,8.242z"/>
<path fill-rule="evenodd" clip-rule="evenodd" fill="#FFFFFF" d="M127.281,10.121c0-1.07-0.016-2.14,0.008-3.21
	c0.008-0.373-0.09-0.5-0.48-0.493c-0.981,0.017-0.982-0.003-0.982-0.98c0-1.06,0-1.073,1.067-1.1
	c0.329-0.008,0.396-0.138,0.392-0.428c-0.014-0.747,0.005-1.495-0.009-2.242c-0.006-0.264,0.075-0.356,0.345-0.35
	c0.646,0.017,1.291,0.019,1.936,0c0.29-0.009,0.331,0.119,0.328,0.363c-0.012,0.747,0.007,1.495-0.01,2.242
	c-0.008,0.307,0.088,0.42,0.403,0.412c0.713-0.019,1.427,0.006,2.14-0.011c0.314-0.008,0.466,0.057,0.438,0.417
	c-0.033,0.439-0.023,0.883-0.002,1.324c0.015,0.298-0.101,0.375-0.382,0.368c-0.73-0.017-1.461,0.008-2.191-0.012
	c-0.31-0.008-0.408,0.086-0.406,0.402c0.013,2.14,0.001,4.28,0.01,6.42c0.002,0.763,0.342,1.121,1.112,1.167
	c0.508,0.029,1.02,0.017,1.528,0.005c0.237-0.005,0.335,0.067,0.328,0.317c-0.016,0.509-0.017,1.02,0,1.528
	c0.009,0.259-0.104,0.314-0.334,0.311c-0.696-0.011-1.394,0.019-2.089-0.012c-2.061-0.09-3.115-1.193-3.146-3.281
	C127.269,12.228,127.281,11.174,127.281,10.121z"/>
<path fill-rule="evenodd" clip-rule="evenodd" fill="#FFFFFF" d="M194.008,37.19c-1.366-0.03-2.461-0.341-3.311-1.228
	c-1.556-1.624-1.188-4.305,0.774-5.44c1.484-0.858,3.054-0.876,4.586-0.124c1.417,0.696,2.128,2.175,1.888,3.736
	c-0.231,1.502-1.438,2.675-3.043,2.953C194.551,37.149,194.198,37.21,194.008,37.19z"/>
<path fill-rule="evenodd" clip-rule="evenodd" fill="#FFFFFF" d="M121.032,0.227c0.841-0.008,1.683-0.017,2.523-0.025
	c0.092,0.159,0.049,0.332,0.049,0.499c0.003,5.093-0.006,10.187,0.015,15.28c0.002,0.51-0.149,0.639-0.627,0.599
	c-0.506-0.042-1.02-0.031-1.527-0.002c-0.361,0.02-0.452-0.107-0.451-0.459c0.014-3.175,0.007-6.35,0.008-9.524
	C121.023,4.471,121.028,2.349,121.032,0.227z"/>
<path fill-rule="evenodd" clip-rule="evenodd" fill="#FFFFFF" d="M180.495,5.796c0.907-1.019,1.947-1.568,3.25-1.642
	c0.346-0.02,0.438,0.092,0.426,0.422c-0.022,0.61-0.021,1.223,0,1.833c0.011,0.318-0.102,0.415-0.41,0.398
	c-0.423-0.022-0.845,0.002-1.266,0.092c-0.917,0.195-1.507,0.738-1.782,1.627c-0.161,0.523-0.219,1.062-0.219,1.608
	c0.002,1.987-0.009,3.974,0.01,5.96c0.004,0.38-0.096,0.508-0.482,0.485c-0.559-0.033-1.121-0.022-1.681-0.003
	c-0.302,0.01-0.415-0.072-0.414-0.396c0.01-3.82,0.01-7.641,0-11.462c-0.001-0.323,0.11-0.407,0.413-0.397
	c0.594,0.019,1.188,0.018,1.782,0c0.289-0.008,0.394,0.09,0.378,0.38C180.479,5.066,180.495,5.432,180.495,5.796z"/>
</svg>
