<?xml version="1.0" encoding="UTF-8"?>
<svg width="21px" height="20px" viewBox="0 0 21 20" version="1.1" xmlns="http://www.w3.org/2000/svg" xmlns:xlink="http://www.w3.org/1999/xlink">
    <!-- Generator: Sketch 59.1 (86144) - https://sketch.com -->
    <title>Back</title>
    <desc>Created with Sketch.</desc>
    <g id="Org-Portal-Pages" stroke="none" stroke-width="1" fill="none" fill-rule="evenodd">
        <g id="Icons/Navigation/Back" transform="translate(-2.000000, -2.000000)" fill="#FFFFFF">
            <path d="M5.43157288,12.5026407 L12.336892,19.4079598 C12.6770896,19.7481575 12.6770896,20.2997269 12.336892,20.6399246 L12.1546432,20.8221733 C11.8144455,21.162371 11.2628761,21.162371 10.9226784,20.8221733 L2.25514826,12.1546432 C2.08504942,11.9845444 2,11.7616026 2,11.5386608 C2,11.315719 2.08504942,11.0927772 2.25514826,10.9226784 L10.9226784,2.25514826 C11.2628761,1.91495058 11.8144455,1.91495058 12.1546432,2.25514826 L12.336892,2.43739703 C12.6770896,2.77759471 12.6770896,3.32916414 12.336892,3.66936183 L5.5036131,10.5026407 L22,10.5026407 C22.5522847,10.5026407 23,10.9503559 23,11.5026407 C23,12.0549254 22.5522847,12.5026407 22,12.5026407 L5.43157288,12.5026407 Z" id="Path"></path>
        </g>
    </g>
</svg>