[
{"id":"1","interview_type":"1","file_name":"Group_Interview_June_2019_CYF.pptx","archive":"0","created":"2019-11-07 12:03:20"},
{"id":"2","interview_type":"2","file_name":"Candidate_Assessment_and_Briefing_Program.pptx","archive":"0","created":"2019-11-07 12:03:20"}
]